{
  "name": {
    "en": "Release Source"
  },
  "description": {
    "en": "Add the information system where the release data comes from."
  },
  "documentationUrl": {
    "en": "https://bitbucket.org/izelayas/ocds_releasesource_extension/src/master/README.md"
  },
  "compatibility": [
    "1.1"
  ],
  "schemas": [
    "release-schema.json"
  ]
}
